Learning
…
These operations are made smoother by tidverse Let’s do something
similar on ANES. Let’s remove all observations from the year 2000, then
remove the variable turnout:

ANES <- filter(ANES, # what is your data frame? 
               year != 2000) # the condition you impose
ANES <- select(ANES, 
               -turnout) # keep everything BUT the variable named "turnout"

Now suppose we want to sort observations in our ANES dataset based on
state, then year.We can do it by:

ANES[order(ANES[,2], ANES[,1]),]

## # A tibble: 249 x 7
##     year     state   FTM white   poor voteDem    dem
##    <dbl> <dbl+lbl> <dbl> <dbl>  <dbl>   <dbl>  <dbl>
##  1  1984    4 [NH]  73.6 1     0.118    0.231 0.205 
##  2  1986    4 [NH]  76.7 0.944 0.154    0     0.333 
##  3  1988    4 [NH]  66.3 0.935 0.0667   0.161 0.194 
##  4  1990    4 [NH]  72.6 0.959 0.0476   0     0.184 
##  5  1992    4 [NH]  50.6 0.914 0.0909   0.278 0.25  
##  6  1994    4 [NH]  52.7 1     0.286    0     0.133 
##  7  1996    4 [NH]  56.9 1     0.176    0.278 0.167 
##  8  1998    4 [NH]  41.8 1     0.0833   0     0.25  
##  9  2002    4 [NH]  72.6 0.923 0        0     0.0769
## 10  2004    4 [NH]  51.6 0.917 0.167    0.308 0.308 
## # … with 239 more rows
…
